% Pendulum cart picture
% Copyright (C) 2022 Richard Hacker
% License: CC BY+SA 4.0

\begin{tikzpicture}

  % Axes
  \draw[help lines] (-1,0) -- (5, 0)
                    ( 0,2) -- (0,-4);

  % Pendulum
  \draw[very thick,fill=red!50] (2,0) -- node[anchor=south west] {$l$} (4,-3);
  \draw[fill=red!50] (4,-3) circle (0.5) node {$m$};

  % Cart
  \draw[fill=black!10] (1.25,0) rectangle +(1.5,1) node[anchor=north east] {$M$};

  \draw[dashed] (2,1.5) -- (2,-3.5);

  % Measures
  \draw[->] (2.5,0.5) -- (4,0.5) node[anchor=south west] {$F$};
  \draw[->,very thin] (0,-2) -- node[above] {$x$} (2,-2);
  \draw[->,very thin] (2,-1.5) arc (-90:-57:1.5) node[midway, above] {$\theta$};

\end{tikzpicture}
